Division,WeightClassKg,Place,Name,Team,BodyweightKg,Best3SquatKg,Best3BenchKg,Best3DeadliftKg,TotalKg,Equipment,Event,Sex
Boys,51.71,1,Sawyer Yandell,Devine,51.35,111.13,54.43,108.86,274.42,Single-ply,SBD,M
Boys,51.71,2,Michael Davis #1,San Antonio East Central,51.35,92.99,49.9,83.91,226.8,Single-ply,SBD,M
Boys,51.71,3,Garrett Bradley,San Antonio East Central,46.27,61.23,,,61.23,Single-ply,S,M
Boys,59.87,1,Austin Johnson #6,Bandera,55.93,142.88,102.06,145.15,390.09,Single-ply,SBD,M
Boys,55.79,2,Jon Guillen,Lytle,54.16,124.74,88.45,142.88,356.07,Single-ply,SBD,M
Boys,55.79,3,Christian Sanchez,Cotulla,54.52,104.33,74.84,142.88,322.05,Single-ply,SBD,M
Boys,55.79,4,Ronald Sanchez,Poteet,55.7,117.93,72.57,131.54,322.05,Single-ply,SBD,M
Boys,55.79,5,Juan Guerrero,Lytle,55.79,120.2,61.23,127.01,308.44,Single-ply,SBD,M
Boys,55.79,6,Josh Shoemake,Center Point,53.61,102.06,52.16,127.01,281.23,Single-ply,SBD,M
Boys,55.79,7,Allan Patty,San Antonio East Central,54.25,97.52,40.82,113.4,251.74,Single-ply,SBD,M
Boys,55.79,8,Christopher Aguilar,San Antonio Memorial,53.52,79.38,54.43,115.67,249.48,Single-ply,SBD,M
Boys,55.79,9,Robert Knight,Poteet,52.44,74.84,56.7,102.06,233.6,Single-ply,SBD,M
Boys,59.87,1,Thomas Garza,San Antonio East Central,59.24,129.27,97.52,136.08,362.87,Single-ply,SBD,M
Boys,59.87,2,Jacob Tomlinson,Medina,58.79,136.08,61.23,131.54,328.85,Single-ply,SBD,M
Boys,59.87,3,Matt Rodriguez,San Antonio East Central,57.7,124.74,74.84,124.74,324.32,Single-ply,SBD,M
Boys,59.87,4,Benito Salazar,Carrizo Springs,56.25,117.93,65.77,122.47,306.17,Single-ply,SBD,M
Boys,59.87,5,Alex Cruz,San Antonio Memorial,59.42,104.33,63.5,127.01,294.84,Single-ply,SBD,M
Boys,59.87,6,Freddy Falcon,Del Rio,58.51,81.65,61.23,108.86,251.74,Single-ply,SBD,M
Boys,59.87,7,Mark Campos,San Antonio East Central,59.87,142.88,,,142.88,Single-ply,S,M
Boys,59.87,DQ,Matt Rodriguez,San Antonio East Central,59.87,,,,,Single-ply,S,M
Boys,59.87,DQ,Steven Garza,Crystal City,59.87,,,,,Single-ply,S,M
Boys,67.13,1,Arturo Cervantez,Crystal City,67.04,174.63,102.06,172.37,449.06,Single-ply,SBD,M
Boys,67.13,2,Rick Dominguez,Center Point,65.14,170.1,102.06,158.76,430.91,Single-ply,SBD,M
Boys,67.13,3,Joshua Hardin,Del Rio,63.32,147.42,111.13,161.03,419.57,Single-ply,SBD,M
Boys,67.13,4,Ryan Montgomery,Devine,61.05,158.76,90.72,165.56,415.04,Single-ply,SBD,M
Boys,67.13,5,Daniel Rodriguez #11,San Antonio East Central,65.95,156.49,81.65,147.42,385.55,Single-ply,SBD,M
Boys,67.13,6,Patrick Halsell,Center Point,62.96,145.15,90.72,129.27,365.14,Single-ply,SBD,M
Boys,74.84,7,Jake Estrada,Lytle,67.31,122.47,70.31,149.69,342.46,Single-ply,SBD,M
Boys,67.13,8,Adrian Valdez,Lytle,60.87,111.13,81.65,136.08,328.85,Single-ply,SBD,M
Boys,67.13,9,Raul Fuentes,Uvalde,63.05,113.4,92.99,122.47,328.85,Single-ply,SBD,M
Boys,67.13,10,Lorenzo Garcia,Cotulla,61.6,115.67,83.91,124.74,324.32,Single-ply,SBD,M
Boys,67.13,11,Woodrow Garcia,Cotulla,60.24,117.93,54.43,147.42,319.78,Single-ply,SBD,M
Boys,67.13,12,Luis Flores,Poteet,60.69,117.93,61.23,138.35,317.51,Single-ply,SBD,M
Boys,67.13,13,Levon Ramirez,Devine,65.23,113.4,77.11,124.74,315.25,Single-ply,SBD,M
Boys,67.13,14,Kaleb Charanza,Medina,65.95,117.93,77.11,120.2,315.25,Single-ply,SBD,M
Boys,67.13,15,Larry Cantu,San Antonio Memorial,61.69,113.4,47.63,142.88,303.91,Single-ply,SBD,M
Boys,67.13,16,Allan Molina,San Antonio Memorial,62.51,122.47,52.16,122.47,297.1,Single-ply,SBD,M
Boys,67.13,17,Nigel Cardenas,San Antonio Memorial,62.05,111.13,58.97,124.74,294.84,Single-ply,SBD,M
Boys,74.84,18,Daniel Luna,Uvalde,67.31,92.99,74.84,124.74,292.57,Single-ply,SBD,M
Boys,67.13,19,Thomas Wheatley,Medina,62.41,97.52,65.77,99.79,263.08,Single-ply,SBD,M
Boys,67.13,20,Sean Santillanes,Uvalde,64.5,99.79,58.97,90.72,249.48,Single-ply,SBD,M
Boys,67.13,DQ,Jacob Escobar,San Antonio East Central,66.95,,,,,Single-ply,SBD,M
Boys,67.13,DQ,Mark Ruiz,Cotulla,67.13,,,,,Single-ply,SBD,M
Boys,67.13,DQ,Josh Young,Bandera,67.13,,,,,Single-ply,SBD,M
Boys,67.13,DQ,Jacob Rodriguez #10,Crystal City,61.42,,,,,Single-ply,SBD,M
Boys,67.13,DQ,Danny Zavala,Crystal City,63.23,,,,,Single-ply,SBD,M
Boys,74.84,1,Roy Arispe,Devine,73.12,204.12,104.33,206.38,514.83,Single-ply,SBD,M
Boys,74.84,2,Darrell DuBose,Devine,68.22,172.37,99.79,195.04,467.2,Single-ply,SBD,M
Boys,74.84,3,Jacob Ritch,San Antonio East Central,71.3,163.29,108.86,174.63,446.79,Single-ply,SBD,M
Boys,74.84,4,Dakota Ross,Center Point,70.94,154.22,113.4,174.63,442.25,Single-ply,SBD,M
Boys,74.84,5,Daniel Yanez,Lytle,69.76,156.49,95.25,165.56,417.3,Single-ply,SBD,M
Boys,74.84,6,Joseph Sadler,Devine,74.84,154.22,92.99,167.83,415.04,Single-ply,SBD,M
Boys,74.84,7,Mario Munoz,Center Point,71.85,161.03,92.99,151.95,405.97,Single-ply,SBD,M
Boys,82.1,8,Brian Staffen,Del Rio,75.02,136.08,95.25,156.49,387.82,Single-ply,SBD,M
Boys,74.84,9,Benny Rodriguez,Lytle,72.85,131.54,77.11,174.63,383.29,Single-ply,SBD,M
Boys,74.84,10,Kris Guzman,Poteet,73.21,120.2,72.57,158.76,351.53,Single-ply,SBD,M
Boys,74.84,11,Jaime Gutierrez,Del Rio,69.85,111.13,108.86,124.74,344.73,Single-ply,SBD,M
Boys,74.84,12,Jacob Sul,Lytle,70.49,129.27,70.31,140.61,340.19,Single-ply,SBD,M
Boys,74.84,13,Emilio Patlan,Lytle,67.59,113.4,81.65,131.54,326.59,Single-ply,SBD,M
Boys,74.84,14,Randy Valdez,Uvalde,68.67,102.06,74.84,127.01,303.91,Single-ply,SBD,M
Boys,82.1,15,Lemuel Ramirez,Center Point,75.02,115.67,72.57,115.67,303.91,Single-ply,SBD,M
Boys,74.84,16,David Clay,San Antonio East Central,70.22,92.99,72.57,136.08,301.64,Single-ply,SBD,M
Boys,74.84,17,Tommy Hyatt,Lytle,72.12,99.79,58.97,136.08,294.84,Single-ply,SBD,M
Boys,74.84,18,Edward Hernandez,San Antonio Memorial,69.76,133.81,63.5,,197.31,Single-ply,SB,M
Boys,74.84,19,Adan Ruiz,Cotulla,68.04,165.56,,,165.56,Single-ply,S,M
Boys,74.84,DQ,Benny Castor,Cotulla,74.84,,,,,Single-ply,S,M
Boys,74.84,DQ,Matt Marrs,Bandera,74.84,,,,,Single-ply,S,M
Boys,74.84,DQ,David Clay,San Antonio East Central,74.84,,,,,Single-ply,S,M
Boys,82.1,1,Tyler Stevens,Bandera,78.2,226.8,127.01,215.46,569.26,Single-ply,SBD,M
Boys,82.1,2,Joey Perez,Crystal City,81.83,190.51,129.27,167.83,487.61,Single-ply,SBD,M
Boys,82.1,3,Josh Falcon,San Antonio East Central,80.29,185.97,104.33,195.04,485.34,Single-ply,SBD,M
Boys,82.1,4,Dillion Brunet,Center Point,76.38,176.9,111.13,190.51,478.54,Single-ply,SBD,M
Boys,82.1,5,William Bookout,Lytle,78.29,156.49,115.67,183.7,455.86,Single-ply,SBD,M
Boys,82.1,6,Alec Connally,Bandera,78.2,172.37,113.4,158.76,444.52,Single-ply,SBD,M
Boys,82.1,7,David Garza,Cotulla,76.2,151.95,99.79,181.44,433.18,Single-ply,SBD,M
Boys,82.1,8,Ricky Garza,Crystal City,78.02,113.4,92.99,158.76,365.14,Single-ply,SBD,M
Boys,82.1,9,Jesus Sanchez,San Antonio Memorial,79.65,124.74,54.43,127.01,306.17,Single-ply,SBD,M
Boys,82.1,DQ,Sabastian Dominguez,San Antonio East Central,82.1,,,,,Single-ply,SBD,M
Boys,82.1,DQ,Tanner Starr,Medina,82.1,,,,,Single-ply,SBD,M
Boys,82.1,DQ,Carlos Carrillo,Lytle,82.1,,,,,Single-ply,SBD,M
Boys,89.81,1,Paul Dupart,San Antonio East Central,88,242.67,127.01,183.7,553.38,Single-ply,SBD,M
Boys,89.81,2,Fredo Flores,Center Point,87,219.99,122.47,208.65,551.11,Single-ply,SBD,M
Boys,89.81,3,Chris Hearn,Cotulla,87.91,192.78,111.13,240.4,544.31,Single-ply,SBD,M
Boys,89.81,4,Garrett Perez,Center Point,84.1,165.56,115.67,176.9,458.13,Single-ply,SBD,M
Boys,89.81,5,Adrian Guardiola,Lytle,87.27,172.37,104.33,179.17,455.86,Single-ply,SBD,M
Boys,89.81,6,Michael Dobson,Bandera,88,192.78,97.52,161.03,451.32,Single-ply,SBD,M
Boys,89.81,7,Joe Hernandez #1,San Antonio East Central,88.9,176.9,104.33,163.29,444.52,Single-ply,SBD,M
Boys,89.81,8,Santos Dominguez,San Antonio East Central,84.1,158.76,92.99,170.1,421.84,Single-ply,SBD,M
Boys,89.81,9,Henry Vasquez,San Antonio East Central,84.1,179.17,88.45,151.95,419.57,Single-ply,SBD,M
Boys,89.81,10,Estaban Ferdin,Lytle,86,117.93,86.18,156.49,360.61,Single-ply,SBD,M
Boys,89.81,11,John Guerra,Bandera,89.36,136.08,77.11,133.81,347,Single-ply,SBD,M
Boys,89.81,12,Phillip Gallegos,Carrizo Springs,87.23,131.54,65.77,124.74,322.05,Single-ply,SBD,M
Boys,89.81,13,Aaron Perez,Uvalde,87.72,97.52,65.77,111.13,274.42,Single-ply,SBD,M
Boys,99.79,14,Michael Turner,San Antonio East Central,90.04,142.88,,,142.88,Single-ply,S,M
Boys,89.81,DQ,Joe Sanchez,Poteet,89.81,,,,,Single-ply,S,M
Boys,89.81,DQ,Robert Morales,Uvalde,89.81,,,,,Single-ply,S,M
Boys,99.79,1,Thomas Gray,San Antonio East Central,94.53,249.48,142.88,238.14,630.49,Single-ply,SBD,M
Boys,99.79,2,Victor Jimenez,Crystal City,98.16,215.46,142.88,213.19,571.53,Single-ply,SBD,M
Boys,99.79,3,Jamie Menchaca,Carrizo Springs,92.53,195.04,133.81,195.04,523.9,Single-ply,SBD,M
Boys,99.79,4,Johnny Sanders,Del Rio,97.16,204.12,129.27,188.24,521.63,Single-ply,SBD,M
Boys,99.79,5,Zane Sanchez,Devine,92.99,195.04,117.93,190.51,503.49,Single-ply,SBD,M
Boys,99.79,6,Abe Sanchez,San Antonio East Central,97.43,190.51,108.86,192.78,492.15,Single-ply,SBD,M
Boys,99.79,7,Hector Castillo,San Antonio Memorial,95.53,185.97,102.06,165.56,453.59,Single-ply,SBD,M
Boys,99.79,8,Omar Martinez #4,Lytle,96.43,170.1,99.79,181.44,451.32,Single-ply,SBD,M
Boys,99.79,9,Juan Rios,Crystal City,90.08,188.24,83.91,172.37,444.52,Single-ply,SBD,M
Boys,99.79,10,MacNeal Price,San Antonio East Central,97.07,156.49,92.99,183.7,433.18,Single-ply,SBD,M
Boys,99.79,11,Jacob Jaquez,San Antonio Memorial,90.72,138.35,102.06,147.42,387.82,Single-ply,SBD,M
Boys,99.79,12,Curis McCumber,San Antonio East Central,90.54,131.54,81.65,136.08,349.27,Single-ply,SBD,M
Boys,99.79,13,Abel Gonzales,San Antonio Memorial,90.17,129.27,65.77,136.08,331.12,Single-ply,SBD,M
Boys,99.79,14,Steven Avila,Uvalde,92.9,138.35,56.7,136.08,331.12,Single-ply,SBD,M
Boys,99.79,15,Eric Trevino,Uvalde,93.35,99.79,68.04,127.01,294.84,Single-ply,SBD,M
Boys,99.79,16,Jesus Hernandez #2,San Antonio Memorial,90.26,161.03,,,161.03,Single-ply,S,M
Boys,99.79,DQ,Jacob Rivera,Uvalde,99.79,,,,,Single-ply,S,M
Boys,99.79,DQ,Jonathan Guerra,Poteet,99.79,,,,,Single-ply,S,M
Boys,99.79,DQ,Alex Chavarria,Carrizo Springs,99.79,,,,,Single-ply,S,M
Boys,109.77,1,Ricardo Aleman,San Antonio Memorial,104.78,201.85,124.74,192.78,519.36,Single-ply,SBD,M
Boys,109.77,2,Andrew Salazar,Devine,106.32,195.04,122.47,197.31,514.83,Single-ply,SBD,M
Boys,109.77,3,Domonic Wellham,Del Rio,101.33,192.78,129.27,176.9,498.95,Single-ply,SBD,M
Boys,109.77,4,Patrick Rodriguez,Devine,102.33,167.83,117.93,167.83,453.59,Single-ply,SBD,M
Boys,109.77,5,Xavier Lopez,San Antonio Memorial,102.87,136.08,140.61,165.56,442.25,Single-ply,SBD,M
Boys,109.77,6,George Brooks,Lytle,101.7,140.61,106.59,181.44,428.64,Single-ply,SBD,M
Boys,109.77,7,Juan Chavez,San Antonio East Central,105.23,170.1,102.06,127.01,399.16,Single-ply,SBD,M
Boys,109.77,8,Michael Escamilla,Carrizo Springs,109.32,136.08,74.84,181.44,392.36,Single-ply,SBD,M
Boys,109.77,9,Adrian Contreras,Poteet,105.78,120.2,74.84,181.44,376.48,Single-ply,SBD,M
Boys,109.77,10,Vicente Aguirre,Carrizo Springs,104.78,108.86,65.77,102.06,276.69,Single-ply,SBD,M
Boys,109.77,11,Russell Lualemaga,Uvalde,104.87,217.72,,,217.72,Single-ply,S,M
Boys,109.77,DQ,Cooper Sparks,Medina,109.77,,,,,Single-ply,S,M
Boys,109.77,DQ,Jeremy Cantu,San Antonio East Central,107.14,,,,,Single-ply,S,M
Boys,109.77,DQ,Alex Salazar #2,Center Point,105.78,,,,,Single-ply,S,M
Boys,124.74,1,Joey Guzman,Del Rio,122.11,219.99,154.22,215.46,589.67,Single-ply,SBD,M
Boys,124.74,2,Danny Alvarez,San Antonio East Central,119.2,204.12,136.08,192.78,532.97,Single-ply,SBD,M
Boys,124.74,3,Gus Zavala,Del Rio,120.56,181.44,142.88,190.51,514.83,Single-ply,SBD,M
Boys,124.74,4,Sean Pittman,Devine,116.75,172.37,136.08,188.24,496.68,Single-ply,SBD,M
Boys,124.74,5,Edward Lopez,San Antonio East Central,112.58,158.76,102.06,181.44,442.25,Single-ply,SBD,M
Boys,124.74,6,Terry Kelly,San Antonio East Central,121.93,154.22,104.33,158.76,417.3,Single-ply,SBD,M
Boys,124.74,7,Alex Hernandez #19,Lytle,120.47,142.88,102.06,149.69,394.63,Single-ply,SBD,M
Boys,124.74,8,Jeffery Garcia,Carrizo Springs,117.03,136.08,113.4,95.25,344.73,Single-ply,SBD,M
Boys,124.74,9,Gabriel Gonzales,Devine,116.48,108.86,68.04,108.86,285.76,Single-ply,SBD,M
Boys,124.74,DQ,Jason Hernandez,Lytle,116.85,,,,,Single-ply,SBD,M
Boys,124.74,DQ,Tyler Hall #6,Bandera,115.21,,,,,Single-ply,SBD,M
Boys,124.74,DQ,Robert Gregory #2,Center Point,124.74,,,,,Single-ply,SBD,M
Boys,124.74+,1,Henry Zamora,Uvalde,128,278.96,140.61,229.06,648.64,Single-ply,SBD,M
Boys,124.74+,2,Darryel Senney,Del Rio,134.54,190.51,138.35,172.37,501.22,Single-ply,SBD,M
Boys,124.74+,3,Mark Alarcon,San Antonio East Central,136.08,181.44,104.33,147.42,433.18,Single-ply,SBD,M
Boys,124.74+,DQ,Daniel Valdillez,San Antonio Memorial,126.82,,,,,Single-ply,SBD,M
Boys,124.74+,DQ,Jesse Adams,Del Rio,134.26,,,,,Single-ply,SBD,M
