Division,WeightClassKg,Place,Name,Team,BodyweightKg,Best3SquatKg,Best3BenchKg,Best3DeadliftKg,TotalKg,Equipment,Event,Sex
Boys,51.71,1,Suliman Uddin,Springtown,49.9,86.18,40.82,92.99,219.99,Single-ply,SBD,M
Boys,51.71,2,Dennis Mema,Saginaw,47.17,74.84,43.09,90.72,208.65,Single-ply,SBD,M
Boys,55.79,1,Connor Moore #3,White Settlement Brewer,52.16,104.33,65.77,120.2,290.3,Single-ply,SBD,M
Boys,55.79,DQ,Arnold Delgidillo,White Settlement Brewer,55.34,120.2,,,,Single-ply,SBD,M
Boys,59.87,1,Anthony Cuevas,Saginaw,58.06,142.88,92.99,133.81,369.68,Single-ply,SBD,M
Boys,59.87,2,Ezekiel Mitchell,Springtown,57.61,129.27,61.23,136.08,326.59,Single-ply,SBD,M
Boys,59.87,3,Drake York,Springtown,58.51,122.47,70.31,117.93,310.71,Single-ply,SBD,M
Boys,67.13,4,Trey Johnson,Springtown,59.96,113.4,63.5,117.93,294.84,Single-ply,SBD,M
Boys,67.13,1,Marquis Sanders,Saginaw,66.22,174.63,86.18,170.1,430.91,Single-ply,SBD,M
Boys,67.13,2,Maleek Tarver,Saginaw,65.77,149.69,102.06,142.88,394.63,Single-ply,SBD,M
Boys,67.13,3,Phillip Schneider,Springtown,66.22,147.42,92.99,142.88,383.29,Single-ply,SBD,M
Boys,67.13,4,Sawyer Wachel,Saginaw,63.05,158.76,74.84,145.15,378.75,Single-ply,SBD,M
Boys,67.13,5,Jackson Walker,Springtown,64.41,142.88,77.11,156.49,376.48,Single-ply,SBD,M
Boys,67.13,6,Blake Sanders,Springtown,64.86,136.08,81.65,140.61,358.34,Single-ply,SBD,M
Boys,74.84,1,Collin Rector,Springtown,71.67,145.15,97.52,170.1,412.77,Single-ply,SBD,M
Boys,74.84,2,Clayton Walker,Springtown,69.85,151.95,77.11,170.1,399.16,Single-ply,SBD,M
Boys,74.84,3,Lewis Blackwell,Saginaw,70.31,142.88,97.52,154.22,394.63,Single-ply,SBD,M
Boys,74.84,4,Chanse Lee,Springtown,71.67,142.88,88.45,158.76,390.09,Single-ply,SBD,M
Boys,74.84,5,Evan Glesne,Springtown,70.76,142.88,83.91,154.22,381.02,Single-ply,SBD,M
Boys,74.84,6,Brennen Barrs,White Settlement Brewer,71.67,111.13,81.65,136.08,328.85,Single-ply,SBD,M
Boys,82.1,1,Benji Perez,White Settlement Brewer,78.93,192.78,90.72,161.03,444.52,Single-ply,SBD,M
Boys,82.1,2,Kevin Perotti,White Settlement Brewer,78.93,170.1,111.13,161.03,442.25,Single-ply,SBD,M
Boys,82.1,3,Josh White,Springtown,81.19,163.29,83.91,170.1,417.3,Single-ply,SBD,M
Boys,82.1,4,Chance Richards,Saginaw,79.38,158.76,102.06,147.42,408.23,Single-ply,SBD,M
Boys,82.1,5,Braxton Weaver,Springtown,81.19,158.76,86.18,163.29,408.23,Single-ply,SBD,M
Boys,82.1,6,Chance Nelson,Springtown,79.83,154.22,79.38,142.88,376.48,Single-ply,SBD,M
Boys,82.1,7,Matt Brunk,Saginaw,77.11,131.54,92.99,142.88,367.41,Single-ply,SBD,M
Boys,89.81,1,Juan Díaz,Saginaw,83.91,204.12,142.88,183.7,530.7,Single-ply,SBD,M
Boys,89.81,2,Stephan Smith,Saginaw,87.54,158.76,111.13,158.76,428.64,Single-ply,SBD,M
Boys,89.81,3,Daniel Raya,White Settlement Brewer,89.81,151.95,106.59,149.69,408.23,Single-ply,SBD,M
Boys,89.81,4,Charlie Emmert,Springtown,88.45,158.76,92.99,142.88,394.63,Single-ply,SBD,M
Boys,99.79,1,Shannon Larry,White Settlement Brewer,92.99,235.87,124.74,199.58,560.19,Single-ply,SBD,M
Boys,99.79,2,Kaleb Keys,Springtown,98.88,210.92,131.54,185.97,528.44,Single-ply,SBD,M
Boys,99.79,3,Tyler Chappell,Springtown,99.34,192.78,92.99,206.38,492.15,Single-ply,SBD,M
Boys,99.79,4,Devin Casillas,White Settlement Brewer,93.44,183.7,122.47,176.9,483.08,Single-ply,SBD,M
Boys,99.79,5,Stephen Evans #6,White Settlement Brewer,95.25,197.31,106.59,170.1,474,Single-ply,SBD,M
Boys,99.79,6,Colton Hunt,Springtown,92.99,188.24,97.52,183.7,469.47,Single-ply,SBD,M
Boys,99.79,7,Joey Chandler,White Settlement Brewer,90.72,183.7,106.59,158.76,449.06,Single-ply,SBD,M
Boys,99.79,8,Cale Hatfield,Saginaw,97.98,167.83,111.13,170.1,449.06,Single-ply,SBD,M
Boys,99.79,9,Jacob McCarley,White Settlement Brewer,99.79,129.27,70.31,124.74,324.32,Single-ply,SBD,M
Boys,99.79,DQ,Colyn Waldrop,Springtown,96.16,183.7,120.2,,,Single-ply,SBD,M
Boys,109.77,1,Deaniel Martinez,White Settlement Brewer,107.95,208.65,115.67,195.04,519.36,Single-ply,SBD,M
Boys,109.77,2,Tommy Spaulding,White Settlement Brewer,109.32,213.19,111.13,183.7,508.02,Single-ply,SBD,M
Boys,109.77,3,Cole Wallace,White Settlement Brewer,103.42,165.56,92.99,156.49,415.04,Single-ply,SBD,M
Boys,109.77,4,Jordan Hernandez,Saginaw,106.14,142.88,102.06,142.88,387.82,Single-ply,SBD,M
Boys,109.77,5,Ben Anderson,Springtown,109.32,181.44,70.31,136.08,387.82,Single-ply,SBD,M
Boys,124.74,1,Wylie Reinhardt,Saginaw,117.93,219.99,147.42,204.12,571.53,Single-ply,SBD,M
Boys,124.74,2,Gavin Edgecomb,Springtown,111.13,204.12,99.79,190.51,494.42,Single-ply,SBD,M
Boys,124.74,3,Ricky Chapa,White Settlement Brewer,114.76,161.03,95.25,163.29,419.57,Single-ply,SBD,M
Boys,124.74,4,Darrell Seely,White Settlement Brewer,120.2,165.56,,163.29,328.85,Single-ply,SD,M
Boys,124.74+,1,Joe Rosas,Saginaw,137.44,231.33,170.1,195.04,596.47,Single-ply,SBD,M
Boys,124.74+,2,Brandon Brooks,Springtown,160.12,208.65,124.74,158.76,492.15,Single-ply,SBD,M
