Name,Country,State,Division,BodyweightLbs,WeightClassLbs,BirthDate,Age,Squat1Lbs,Squat2Lbs,Squat3Lbs,Best3SquatLbs,Bench1Lbs,Bench2Lbs,Bench3Lbs,Best3BenchLbs,Deadlift1Lbs,Deadlift2Lbs,Deadlift3Lbs,Best3DeadliftLbs,TotalLbs,Place,Event,Sex,Equipment
Alexandra Arnold,USA,MA,Amateur Submasters 33-39,130.4,132,1989-01-30,34,,,,200,,,,110,,,,215,525,1,SBD,F,Raw
Preetica Sharma,USA,MA,Amateur Juniors 20-23,128.4,132,2001-08-22,22,,,,150,,,,85,,,,170,405,1,SBD,F,Raw
Elizabeth Mowan,USA,MA,Amateur Juniors 20-23,129.6,132,2002-09-13,21,,,,170,,,,100,,,,200,470,1,SBD,F,Wraps
Brighid McGuire,USA,MA,Amateur Juniors 20-23,154.6,165,1999-12-21,23,,,,195,,,,120,,,,240,555,2,SBD,F,Raw
Kelley Roberts,USA,MA,Amateur Juniors 20-23,145.6,148,,23,,,,220,,,,130,,,,245,595,1,SBD,F,Raw
Sydney Iannantuono,USA,MA,Amateur Juniors 20-23,166.2,181,2001-01-12,22,,,,200,,,,115,,,,250,565,1,SBD,F,Raw
Diane Williams,USA,MA,Amateur Juniors 20-23,197.2,198,2001-07-31,22,,,,305,,,,180,,,,350,835,1,SBD,F,Raw
Jake Mainville,USA,MA,Amateur Juniors 20-23,196.8,198,2002-08-17,21,,,,470,,,,270,,,,520,1260,1,SBD,M,Wraps
Emanuel Ciuro Rodriguez,USA,MA,Amateur Juniors 20-23,207.2,220,1999-11-15,23,,,,450,,,,275,,,,430,1155,3,SBD,M,Wraps
Jonah Roach,USA,MA,Amateur Juniors 20-23,216,220,2002-09-23,21,,,,505,,,,295,,,,485,1285,2,SBD,M,Wraps
Radu Stancescu,USA,MA,Amateur Juniors 20-23,215.2,220,1999-11-22,23,,,,700,,,,370,,,,600,1670,1,SBD,M,Wraps
Meghan Tucker,USA,MA,Amateur Juniors 20-23,266,242+,2000-10-30,22,,,,220,,,,155,,,,300,675,1,SBD,F,Raw
Vanessa Sotelo,USA,MA,Amateur Masters 40-44,146.6,148,1981-10-24,41,,,,100,,,,75,,,,165,340,1,SBD,F,Wraps
Krista Brother,USA,MA,Amateur Masters 40-44,171.6,181,1982-02-28,41,,,,215,,,,105,,,,245,565,1,SBD,F,Wraps
Richard Fulton,USA,MA,Amateur Masters 40-44,240.8,242,1982-05-27,41,,,,725,,,,275,,,,550,1550,1,SBD,M,Single-ply
John Herring,USA,MA,Amateur Masters 40-44,286.6,308,,43,,,,320,,,,265,,,,395,980,1,SBD,M,Wraps
Jaime Novack,USA,MA,Amateur Masters 45-49,141.8,148,1977-03-20,46,,,,190,,,,95,,,,225,510,1,SBD,F,Wraps
Beth McCready,USA,MA,Amateur Masters 45-49,164.8,165,1978-01-22,45,,,,210,,,,120,,,,245,575,1,SBD,F,Raw
Mike Vaccari,USA,MA,Amateur Masters 45-49,188.8,198,1978-03-17,45,,,,,,,,175,,,,295,470,1,BD,M,Raw
Ivan Cofield,USA,MA,Amateur Masters 45-49,220.2,220,1976-08-13,47,,,,430,,,,355,,,,435,1220,1,SBD,M,Wraps
Michael Kent,USA,MA,Amateur Masters 50-54,158,165,1970-04-04,53,,,,330,,,,180,,,,305,815,1,SBD,M,Raw
Chris Thornell,USA,MA,Amateur Masters 50-54,179.6,181,1971-03-22,52,,,,,,,,335,,,,,335,1,B,M,Raw
Sean Mansfield,USA,MA,Amateur Masters 50-54,354.2,308+,1972-11-19,50,,,,530,,,,365,,,,405,1300,1,SBD,M,Wraps
David Sexton,USA,MA,Amateur Masters 50-54,293.8,308,1970-03-10,53,,,,535,,,,330,,,,455,1320,1,SBD,M,Raw
Suzette Malika Rushdan,USA,MA,Amateur Masters 55-59,193.8,198,1965-09-16,58,,,,165,,,,110,,,,195,470,1,SBD,F,Wraps
Rick Carey,USA,MA,Amateur Masters 60-64,209.6,220,1963-01-10,60,,,,260,,,,180,,,,250,690,1,SBD,M,Wraps
Rick Costa,USA,MA,Amateur Masters 65-69,119.6,123,1955-05-17,68,,,,190,,,,145,,,,300,635,1,SBD,M,Raw
Pat Mason,USA,MA,Amateur Masters 65-69,147.8,148,,68,,,,,,,,310,,,,,310,1,B,M,Raw
Richelle Wiggins,USA,MA,Amateur Masters 65-69,155.8,165,1957-07-13,66,,,,200,,,,100,,,,215,515,1,SBD,F,Raw
Gurumeet S. Khalsa,USA,MA,Amateur Masters 70-74,208.4,220,1948-11-09,74,,,,295,,,,180,,,,305,780,1,SBD,M,Raw
Taylor Johnson,USA,MA,Amateur Open,102.4,105,1994-04-06,29,,,,165,,,,105,,,,205,475,1,SBD,F,Raw
Lyndsey Littlefield,USA,MA,Amateur Open,129.8,132,1996-12-02,26,,,,205,,,,100,,,,235,540,1,SBD,F,Wraps
Bianca Broomfield,USA,MA,Amateur Open,146.8,148,1998-03-02,25,,,,,,,,165,,,,,165,1,B,F,Raw
Lisa Lomba,USA,MA,Amateur Open,140.8,148,1991-09-01,32,,,,230,,,,105,,,,260,595,2,SBD,F,Raw
Caroline Stairs,USA,MA,Amateur Open,147.4,148,1999-10-22,23,,,,190,,,,100,,,,235,525,3,SBD,F,Raw
Bora Chhun,USA,MA,Amateur Open,148.2,148,,32,,,,315,,,,225,,,,365,905,1,SBD,M,Raw
Demi Miskiv,USA,MA,Amateur Open,151.8,165,1991-05-11,32,,,,,,,,140,,,,275,415,1,BD,F,Raw
Dana Tripp,USA,MA,Amateur Open,156.2,165,1992-06-04,31,,,,275,,,,155,,,,325,755,1,SBD,F,Wraps
Caroline Bradley,USA,MA,Amateur Open,183.8,198,1997-02-19,26,,,,310,,,,160,,,,340,810,1,SBD,F,Raw
Asha Tompkins,USA,MA,Amateur Open,167.2,181,2000-09-23,23,,,,220,,,,125,,,,225,570,3,SBD,F,Raw
Janelle Jenkins,USA,MA,Amateur Open,171.6,181,,27,,,,250,,,,110,,,,235,595,2,SBD,F,Raw
Jessica High,USA,MA,Amateur Open,180.2,181,1993-03-11,30,,,,225,,,,95,,,,225,545,1,SBD,F,Wraps
Hunter Zabkar,USA,MA,Amateur Open,168.6,181,1998-08-28,25,,,,315,,,,240,,,,405,960,1,SBD,M,Raw
Andrew Brown,USA,MA,Amateur Open,174,181,1997-12-06,25,,,,400,,,,275,,,,430,1105,1,SBD,M,Wraps
Bryan Pacheco,USA,MA,Amateur Open,178.6,181,1989-03-05,34,,,,,,,,285,,,,485,770,3,BD,M,Raw
Alexander Messina,USA,MA,Amateur Open,179.2,181,1995-05-24,28,,,,420,,,,230,,,,430,1080,2,SBD,M,Wraps
Matt Gates,USA,MA,Amateur Open,193.8,198,1997-09-24,26,,,,525,,,,255,,,,530,1310,2,SBD,M,Wraps
Jimmy Cooney,USA,MA,Amateur Open,189,198,1992-11-07,30,,,,410,,,,275,,,,425,1110,3,SBD,M,Wraps
Roan McNaughton,USA,MA,Amateur Open,196,198,1990-01-11,33,,,,535,,,,370,,,,605,1510,1,SBD,M,Wraps
Renee Carvalho,USA,MA,Amateur Open,216.4,220,1991-07-18,32,,,,320,,,,130,,,,300,750,1,SBD,F,Raw
Gabrielle Di Nicolantonio,USA,MA,Amateur Open,248.4,242+,1993-05-26,30,,,,155,,,,125,,,,225,505,1,SBD,F,Raw
Craig Slozak,USA,MA,Amateur Open,239,242,1988-01-26,35,,,,600,,,,400,,,,650,1650,1,SBD,M,Wraps
Austen Bryant,USA,MA,Amateur Open,240.4,242,2001-02-13,22,,,,555,,,,405,,,,575,1535,2,SBD,M,Wraps
TJ Vecchiarelli,USA,MA,Amateur Open,239,242,1988-02-10,35,,,,410,,,,250,,,,480,1140,3,SBD,M,Wraps
Luke Frankel,USA,MA,Amateur Open,273.6,275,1998-02-25,25,,,,585,,,,420,,,,635,1640,1,SBD,M,Wraps
Alexander Freeman,USA,MA,Amateur Open,270.8,275,1998-09-17,25,,,,575,,,,385,,,,545,1505,2,SBD,M,Wraps
Alison Rataj,USA,MA,Amateur Submasters 33-39,130.2,132,1987-02-13,36,,,,240,,,,200,,,,300,740,1,SBD,F,Raw
Jennifer Marsh,USA,MA,Amateur Submasters 33-39,148.8,148,1984-05-06,39,,,,250,,,,165,,,,285,700,1,SBD,F,Wraps
Chris Buckley,USA,MA,Amateur Submasters 33-39,174.8,181,1990-10-05,33,,,,,,,,320,,,,405,725,1,BD,M,Single-ply
Timothy Graham,USA,MA,Amateur Submasters 33-39,181.6,181,1984-10-11,38,,,,,,,,310,,,,,310,1,B,M,Raw
Tim Lyford,USA,MA,Amateur Submasters 33-39,175,181,1987-04-11,36,,,,390,,,,225,,,,440,1055,1,SBD,M,Wraps
Matthew Rodriguez,USA,MA,Amateur Submasters 33-39,223.8,242,1989-01-04,34,,,,375,,,,235,,,,385,995,1,SBD,M,Raw
Jeremy Balestrieri,USA,MA,Amateur Submasters 33-39,200,220,1989-08-14,34,,,,475,,,,290,,,,455,1220,2,SBD,M,Wraps
Kris Johnson,USA,MA,Amateur Submasters 33-39,217.4,220,1985-09-21,38,,,,410,,,,225,,,,405,1040,3,SBD,M,Wraps
Victor M Queiros Jr,USA,MA,Amateur Submasters 33-39,222.2,242,1987-02-12,36,,,,520,,,,335,,,,555,1410,1,SBD,M,Wraps
Will Merkle,USA,MA,Amateur Teen 14-15,144.2,148,2007-10-20,15,,,,325,,,,205,,,,315,845,2,SBD,M,Raw
Brandon Silvestri,USA,MA,Amateur Teen 14-15,280,308,2008-09-29,15,,,,300,,,,205,,,,350,855,1,SBD,M,Raw
Harry Wilson,USA,MA,Amateur Teen 14-15,144.2,148,2007-12-18,15,,,,245,,,,242.5,,,,275,762.5,1,SBD,M,Wraps
Delcie Peter,USA,MA,Amateur Teen 18-19,159,165,2005-08-30,18,,,,210,,,,110,,,,185,505,1,SBD,F,Raw
Sean McGlinchey,USA,MA,Amateur Teen 16-17,137.8,148,2007-04-28,16,,,,205,,,,150,,,,245,600,1,SBD,M,Raw
Luke Waldman,USA,MA,Amateur Teen 16-17,164.4,165,2006-08-28,17,,,,315,,,,220,,,,385,920,1,SBD,M,Raw
Cameron Dishmon,USA,MA,Amateur Teen 16-17,153.4,165,2006-10-12,16,,,,240,,,,160,,,,355,755,2,SBD,M,Raw
Matthew Maniscalco,USA,MA,Amateur Teen 16-17,202.8,220,2006-01-06,17,,,,365,,,,235,,,,405,1005,1,SBD,M,Raw
Tessie Brookes,USA,MA,Amateur Teen 18-19,177.6,181,2003-10-21,19,,,,245,,,,80,,,,280,605,1,SBD,F,Wraps
Cody Tom,USA,MA,Amateur Teen 18-19,197,198,2004-06-21,19,,,,415,,,,225,,,,500,1140,1,SBD,M,Wraps
Hayden Frew,USA,MA,Amateur Teen 18-19,213.6,220,2004-01-29,19,,,,385,,,,285,,,,365,1035,1,SBD,M,Wraps
James Teseny,USA,MA,Amateur Teen 18-19,267.2,275,2004-03-31,19,,,,605,,,,315,,,,550,1470,1,SBD,M,Wraps
James Matta,USA,MA,Elite Masters 45-49,236.4,242,1976-02-04,47,,,,745,,,,735,,,,500,1980,1,SBD,M,Unlimited
Harold Spetla III,USA,MA,Elite Open,300,308,1990-01-24,33,,,,670,,,,450,,,,675,1795,1,SBD,M,Wraps
Shemar Grant,USA,MA,Military Amateur Juniors 20-23,175.8,181,2001-10-19,21,,,,425,,,,265,,,,405,1095,1,SBD,M,Wraps
Héctor Santiago,USA,MA,Pro Masters 45-49,163.6,165,1976-12-24,46,,,,520,,,,265,,,,450,1235,1,SBD,M,Raw
Eric B Brownstein,USA,MA,Pro Masters 55-59,140.6,148,1967-02-07,56,,,,600,,,,325,,,,525,1450,1,SBD,M,Multi-ply
Jeff Holstead,USA,MA,Pro Masters 55-59,167.4,181,1968-05-04,55,,,,,,,,450,,,,,450,1,B,M,Unlimited
Charles Montalbano,USA,MA,Pro Open,327.6,308+,1995-03-03,28,,,,805,,,,570,,,,640,2015,1,SBD,M,Multi-ply
